…
You could wrangle the data and join tables to answer questions such as
the following:

Which foods have at least 20g of protein?

``` r
NutrientNames |> 
  inner_join(NutrientAmounts, by = 'nutrient_id') |> 
  filter(nutrient_name == 'PROTEIN', nutrient_value >= 20.00) |> 
  inner_join(FoodNames, by = 'food_id') |> 
  select(food_description, nutrient_value) |> 
  rename("protein_in_g" = nutrient_value)
```

    # A tibble: 1,266 × 2
       food_description                                     protein_in_g
       <chr>                                                       <dbl>
     1 Beef pot roast, with browned potatoes, peas and corn         21.3
     2 Cheese, blue                                                 21.4
     3 Cheese, brick                                                23.2
     4 Cheese, brie                                                 20.8
     5 Cheese, caraway                                              25.2
     6 Cheese, cheshire                                             23.4
     7 Cheese, colby                                                23.8
     8 Cheese, edam                                                 25.0
     9 Cheese, fontina                                              25.6
    10 Cheese, gruyere                                              29.8
    # ℹ 1,256 more rows
…
``` r
NutrientNames |> 
  inner_join(NutrientAmounts, by = 'nutrient_id') |> 
  filter(nutrient_name == 'FAT (TOTAL LIPIDS)') |> 
  inner_join(FoodNames, by = 'food_id') |> 
  inner_join(FoodGroup, by = 'food_group_id') |> 
  rename("fat_in_g" = nutrient_value) |> 
  group_by(food_group_name) |> 
  summarise(num_of_foods = n(), avg_fat_per_food_in_g = mean(fat_in_g)) |> 
  arrange(desc(avg_fat_per_food_in_g))
```

    # A tibble: 23 × 3
       food_group_name             num_of_foods avg_fat_per_food_in_g
       <chr>                              <int>                 <dbl>
     1 Fats and Oils                        144                  67.2
     2 Nuts and Seeds                       139                  39.0
     3 Snacks                                93                  18.2
     4 Sausages and Luncheon meats          149                  16.2
     5 Pork Products                        209                  15.1
     6 Lamb, Veal and Game                  363                  13.7
     7 Dairy and Egg Products               241                  13.3
     8 Fast Foods                           174                  12.4
     9 Baked Products                       441                  11.8
    10 Beef Products                        170                  11.5
    # ℹ 13 more rows
…
